module github.com/paulchu/gapi

go 1.22.2

require (
	github.com/gofiber/fiber/v3 v3.0.0-beta.2
	github.com/google/uuid v1.6.0
	github.com/joho/godotenv v1.5.1
	gorm.io/driver/postgres v1.5.7
	gorm.io/gorm v1.25.9
)

require (
	github.com/andybalholm/brotli v1.1.0 // indirect
	github.com/gofiber/utils/v2 v2.0.0-beta.4 // indirect
	github.com/jackc/pgpassfile v1.0.0 // indirect
	github.com/jackc/pgservicefile v0.0.0-20231201235250-de7065d80cb9 // indirect
	github.com/jackc/pgx/v5 v5.5.5 // indirect
	github.com/jackc/puddle/v2 v2.2.1 // indirect
	github.com/jinzhu/inflection v1.0.0 // indirect
	github.com/jinzhu/now v1.1.5 // indirect
	github.com/klauspost/compress v1.17.6 // indirect
	github.com/mattn/go-colorable v0.1.13 // indirect
	github.com/mattn/go-isatty v0.0.20 // indirect
	github.com/valyala/bytebufferpool v1.0.0 // indirect
	github.com/valyala/fasthttp v1.52.0 // indirect
	github.com/valyala/tcplisten v1.0.0 // indirect
	golang.org/x/crypto v0.22.0 // indirect
	golang.org/x/sync v0.7.0 // indirect
	golang.org/x/sys v0.19.0 // indirect
	golang.org/x/text v0.14.0 // indirect
)
